<?xml version="1.0" encoding="UTF-8" standalone="no"?>
<!DOCTYPE svg PUBLIC "-//W3C//DTD SVG 20010904//EN"
"http://www.w3.org/TR/2001/REC-SVG-20010904/DTD/svg10.dtd">
<!-- Created with Sodipodi ("http://www.sodipodi.com/") -->
<svg
   id="svg1183"
   sodipodi:version="0.32"
   width="210mm"
   height="297mm"
   sodipodi:docname="inner_structure.svg"
   xmlns="http://www.w3.org/2000/svg"
   xmlns:sodipodi="http://sodipodi.sourceforge.net/DTD/sodipodi-0.dtd"
   xmlns:xlink="http://www.w3.org/1999/xlink">
  <defs
     id="defs1185" />
  <sodipodi:namedview
     id="base"
     showgrid="true"
     snaptogrid="true"
     gridspacingx="5mm"
     gridspacingy="5mm"
     snaptoguides="true" />
  <text
     style="fill:black;stroke:none;font-family:Arial;font-style:normal;font-weight:normal;font-size:24;fill-opacity:1;stroke-opacity:1;stroke-width:1pt;stroke-linejoin:miter;stroke-linecap:butt;text-anchor:start;writing-mode:lr;"
     x="68.1648293"
     y="49.3624420"
     id="text1186">
    <tspan
       x="68.1648331"
       y="49.3624420"
       sodipodi:role="line"
       id="tspan1191">
Inner data file</tspan>
  </text>
  <text
     style="fill:black;stroke:none;font-family:Arial;font-style:normal;font-weight:normal;font-size:24;text-anchor:start;writing-mode:lr;fill-opacity:1;stroke-opacity:1;stroke-width:1pt;stroke-linejoin:miter;stroke-linecap:butt;"
     x="453.391632"
     y="49.9548492"
     id="text1193">
    <tspan
       id="tspan1194">
Inner index file</tspan>
  </text>
  <rect
     style="font-size:12;fill:#ffbfbf;fill-rule:evenodd;stroke:#000000;stroke-width:1pt;"
     id="rect1196"
     width="177.165359"
     height="35.433122"
     x="53.149586"
     y="95.669277"
     transform="translate(1.907349e-5,-3.051758e-5)" />
  <rect
     style="font-size:12;fill:#c5eae4;fill-rule:evenodd;stroke:#000000;stroke-width:1pt;"
     id="rect1207"
     width="177.165344"
     height="17.7165985"
     x="53.1496048"
     y="77.9526978"
     transform="translate(1.907349e-5,-3.051758e-5)" />
  <text
     style="font-size:12;font-weight:normal;stroke-width:1pt;font-family:Arial;text-anchor:middle;font-style:normal;writing-mode:lr;"
     x="139.936829"
     y="91.6889801"
     id="text1208"
     transform="translate(1.907349e-5,-3.051758e-5)">
    <tspan
       x="139.936829"
       y="91.6889801"
       sodipodi:role="line"
       id="tspan660">
block header</tspan>
  </text>
  <text
     style="font-size:20;font-weight:normal;stroke-width:1pt;font-family:Arial;text-anchor:middle;font-style:normal;writing-mode:lr;"
     x="141.250000"
     y="121.112122"
     id="text1213"
     transform="translate(1.907349e-5,-3.051758e-5)">
    <tspan
       x="141.250000"
       y="121.112122"
       sodipodi:role="line"
       id="tspan662">
file 1 metadata</tspan>
  </text>
  <g
     id="g1474"
     transform="translate(389.7638,-177.1653)"
     style="font-size:12;">
    <rect
       style="font-size:12;fill-rule:evenodd;stroke:#000000;stroke-width:0.176034pt;"
       id="rect1475"
       width="5.698824"
       height="5.433082"
       x="136.033459"
       y="432.283386"
       ry="2.71654058" />
    <rect
       style="font-size:12;fill-rule:evenodd;stroke:#000000;stroke-width:0.176034pt;"
       id="rect1476"
       width="5.698824"
       height="5.433082"
       x="136.033459"
       y="449.999954"
       ry="2.71654058" />
    <rect
       style="font-size:12;fill-rule:evenodd;stroke:#000000;stroke-width:0.176034pt;"
       id="rect1477"
       width="5.698824"
       height="5.433082"
       x="136.033459"
       y="467.716553"
       ry="2.71654058" />
  </g>
  <path
     style="fill:none;fill-rule:evenodd;stroke:black;stroke-opacity:1;stroke-width:1pt;stroke-linejoin:miter;stroke-linecap:butt;fill-opacity:1;"
     d="M 442.913 148.819 L 240.09 148.819 "
     id="path1507"
     sodipodi:nodetypes="cc" />
  <path
     style="fill:none;fill-rule:evenodd;stroke:black;stroke-opacity:1;stroke-width:1pt;stroke-linejoin:miter;stroke-linecap:butt;fill-opacity:1;"
     d="M 442.913 343.701 L 241.25 566.112 "
     id="path1509"
     sodipodi:nodetypes="cc" />
  <path
     style="fill:none;fill-rule:evenodd;stroke:black;stroke-opacity:1;stroke-width:1pt;stroke-linejoin:miter;stroke-linecap:butt;fill-opacity:1;"
     d="M 248.031 156.237 L 238.355 148.819 L 248.031 139.441 "
     id="path1515"
     sodipodi:nodetypes="ccc" />
  <path
     style="fill:none;fill-rule:evenodd;stroke:black;stroke-opacity:1;stroke-width:1pt;stroke-linejoin:miter;stroke-linecap:butt;fill-opacity:1;"
     d="M 244.541 552.307 L 241.781 565.266 L 254.922 562.385 "
     id="path1521"
     sodipodi:nodetypes="ccc" />
  <g
     id="g766">
    <rect
       style="font-size:12;fill:#808080;fill-opacity:0;fill-rule:evenodd;stroke:#000000;stroke-width:1pt;"
       id="rect1218"
       width="177.500000"
       height="54.793323"
       x="53.750000"
       y="148.818814"
       transform="translate(1.907349e-5,-3.051758e-5)" />
    <text
       style="font-size:20;font-weight:normal;stroke-width:1pt;font-family:Arial;text-anchor:middle;"
       x="141.250019"
       y="191.095840"
       id="text1219">
      <tspan
         x="141.250015"
         y="191.095840"
         sodipodi:role="line"
         id="tspan1222">
file 1 contents</tspan>
    </text>
    <g
       id="g761"
       transform="translate(-372.0472,-460.6301)">
      <rect
         style="font-size:12;fill:#c5eae4;fill-rule:evenodd;stroke:#000000;stroke-width:1pt;"
         id="rect762"
         width="177.165344"
         height="17.716599"
         x="425.196823"
         y="609.448776" />
      <text
         style="font-size:12;font-weight:normal;stroke-width:1pt;font-family:helvetica;"
         x="478.811310"
         y="623.038605"
         id="text763">
        <tspan
           id="tspan764">
block header</tspan>
      </text>
    </g>
  </g>
  <g
     id="g833"
     style="font-size:12;"
     transform="translate(-9.536743e-6,-212.5984)">
    <rect
       style="font-size:12;fill-rule:evenodd;stroke:#000000;stroke-width:0.176034pt;"
       id="rect834"
       width="5.698824"
       height="5.433082"
       x="136.033459"
       y="432.283386"
       ry="2.71654058" />
    <rect
       style="font-size:12;fill-rule:evenodd;stroke:#000000;stroke-width:0.176034pt;"
       id="rect835"
       width="5.698824"
       height="5.433082"
       x="136.033459"
       y="449.999954"
       ry="2.71654058" />
    <rect
       style="font-size:12;fill-rule:evenodd;stroke:#000000;stroke-width:0.176034pt;"
       id="rect836"
       width="5.698824"
       height="5.433082"
       x="136.033459"
       y="467.716553"
       ry="2.71654058" />
  </g>
  <rect
     style="font-size:12;fill:#ffbfbf;fill-rule:evenodd;stroke:#000000;stroke-width:1pt;"
     id="rect1324"
     width="177.165359"
     height="35.433122"
     x="53.149586"
     y="95.669277"
     transform="translate(-0.935040,301.1811)" />
  <rect
     style="font-size:12;fill:#c5eae4;fill-rule:evenodd;stroke:#000000;stroke-width:1pt;"
     id="rect1325"
     width="177.165344"
     height="17.7165985"
     x="53.1496048"
     y="77.9526978"
     transform="translate(-0.935040,301.1811)" />
  <text
     style="font-size:12;font-weight:normal;stroke-width:1pt;font-family:Arial;text-anchor:middle;"
     x="139.936829"
     y="91.6889801"
     id="text1326"
     transform="translate(-0.935040,301.1811)">
    <tspan
       x="139.936829"
       y="91.6889801"
       sodipodi:role="line"
       id="tspan732">
block header</tspan>
  </text>
  <text
     style="font-size:20;font-weight:normal;stroke-width:1pt;font-family:Arial;text-anchor:middle;font-style:normal;writing-mode:lr;"
     x="141.250000"
     y="121.112122"
     id="text1329"
     transform="translate(-0.935040,301.1811)">
    <tspan
       x="141.250000"
       y="121.112122"
       sodipodi:role="line"
       id="tspan976">
file 2 metadata</tspan>
  </text>
  <g
     id="g866"
     transform="translate(2.384186e-5,122.3721)">
    <rect
       style="font-size:12;fill:#808080;fill-opacity:0;fill-rule:evenodd;stroke:#000000;stroke-width:1pt;"
       id="rect867"
       width="177.500000"
       height="54.793323"
       x="53.750000"
       y="148.818814"
       transform="translate(1.907349e-5,-3.051758e-5)" />
    <text
       style="font-size:20;font-weight:normal;stroke-width:1pt;font-family:Arial;text-anchor:middle;"
       x="141.250019"
       y="191.095840"
       id="text868">
      <tspan
         x="141.250015"
         y="191.095840"
         sodipodi:role="line"
         id="tspan869">
file 1 contents</tspan>
    </text>
    <g
       id="g871"
       transform="translate(-372.0472,-460.6301)">
      <rect
         style="font-size:12;fill:#c5eae4;fill-rule:evenodd;stroke:#000000;stroke-width:1pt;"
         id="rect872"
         width="177.165344"
         height="17.716599"
         x="425.196823"
         y="609.448776" />
      <text
         style="font-size:12;font-weight:normal;stroke-width:1pt;font-family:helvetica;"
         x="478.811310"
         y="623.038605"
         id="text873">
        <tspan
           id="tspan874">
block header</tspan>
      </text>
    </g>
  </g>
  <g
     id="g887"
     transform="translate(35.43308,-496.0631)">
    <rect
       style="font-size:12;fill:#c5eae4;fill-rule:evenodd;stroke:#000000;stroke-width:1pt;"
       id="rect877"
       width="177.165344"
       height="17.716599"
       x="425.196823"
       y="609.448776"
       transform="translate(-17.71648,-35.43307)" />
    <text
       style="font-size:12;font-weight:normal;stroke-width:1pt;font-family:Arial;font-style:normal;text-anchor:start;writing-mode:lr;"
       x="464.645775"
       y="586.913132"
       id="text878">
      <tspan
         x="464.645782"
         y="586.913147"
         sodipodi:role="line"
         id="tspan885">
empty block</tspan>
    </text>
  </g>
  <g
     id="g892"
     transform="translate(-354.3307,-230.3151)">
    <rect
       style="font-size:12;fill:#c5eae4;fill-rule:evenodd;stroke:#000000;stroke-width:1pt;"
       id="rect893"
       width="177.165344"
       height="17.716599"
       x="425.196823"
       y="609.448776"
       transform="translate(-17.71648,-35.43307)" />
    <text
       style="font-size:12;font-weight:normal;stroke-width:1pt;font-family:Arial;font-style:normal;text-anchor:start;writing-mode:lr;"
       x="464.645775"
       y="586.913132"
       id="text894">
      <tspan
         x="464.645782"
         y="586.913147"
         sodipodi:role="line"
         id="tspan895">
empty block</tspan>
    </text>
  </g>
  <g
     id="g1363"
     style="font-size:12;"
     transform="translate(-1.870137,214.2421)">
    <rect
       style="font-size:12;fill-rule:evenodd;stroke:#000000;stroke-width:0.176034pt;"
       id="rect1360"
       width="5.698824"
       height="5.433082"
       x="136.033459"
       y="432.283386"
       ry="2.71654058" />
    <rect
       style="font-size:12;fill-rule:evenodd;stroke:#000000;stroke-width:0.176034pt;"
       id="rect1361"
       width="5.698824"
       height="5.433082"
       x="136.033459"
       y="449.999954"
       ry="2.71654058" />
    <rect
       style="font-size:12;fill-rule:evenodd;stroke:#000000;stroke-width:0.176034pt;"
       id="rect1362"
       width="5.698824"
       height="5.433082"
       x="136.033459"
       y="467.716553"
       ry="2.71654058" />
  </g>
  <g
     id="g938"
     transform="translate(-355.2658,125.6595)"
     style="font-size:12;">
    <rect
       style="font-size:12;fill:#c5eae4;fill-rule:evenodd;stroke:#000000;stroke-width:1pt;"
       id="rect939"
       width="177.165344"
       height="17.716599"
       x="425.196823"
       y="609.448776"
       transform="translate(-17.71648,-35.43307)" />
    <text
       style="font-size:12;font-weight:normal;stroke-width:1pt;font-family:Arial;font-style:normal;text-anchor:start;writing-mode:lr;"
       x="464.645775"
       y="586.913132"
       id="text940">
      <tspan
         x="464.645782"
         y="586.913147"
         sodipodi:role="line"
         id="tspan941">
empty block</tspan>
    </text>
  </g>
  <rect
     style="font-size:12;fill:#808080;fill-opacity:0;fill-rule:evenodd;stroke:#000000;stroke-width:1pt;"
     id="rect956"
     width="177.500000"
     height="54.793323"
     x="53.750000"
     y="148.818814"
     transform="translate(-0.935049,425.1970)" />
  <text
     style="font-size:20;font-weight:normal;stroke-width:1pt;font-family:Arial;text-anchor:middle;font-style:normal;writing-mode:lr;"
     x="141.250019"
     y="191.095840"
     id="text957"
     transform="translate(-0.935068,425.1970)">
    <tspan
       x="141.250015"
       y="191.095840"
       sodipodi:role="line"
       id="tspan1030">
last file contents</tspan>
  </text>
  <g
     id="g960"
     transform="translate(-372.9823,-35.43311)"
     style="font-size:12;">
    <rect
       style="font-size:12;fill:#c5eae4;fill-rule:evenodd;stroke:#000000;stroke-width:1pt;"
       id="rect961"
       width="177.165344"
       height="17.716599"
       x="425.196823"
       y="609.448776" />
    <text
       style="font-size:12;font-weight:normal;stroke-width:1pt;font-family:helvetica;"
       x="478.811310"
       y="623.038605"
       id="text962">
      <tspan
         id="tspan963">
block header</tspan>
    </text>
  </g>
  <g
     id="g999"
     transform="translate(0.935059,-104.6555)">
    <rect
       style="font-size:12;fill:#ffbfbf;fill-rule:evenodd;stroke:#000000;stroke-width:1.02293pt;"
       id="rect1381"
       width="177.165359"
       height="37.076722"
       x="52.214546"
       y="625.521661" />
    <rect
       style="font-size:12;fill:#c5eae4;fill-rule:evenodd;stroke:#000000;stroke-width:1pt;"
       id="rect1382"
       width="177.165344"
       height="17.7165985"
       x="53.1496048"
       y="77.9526978"
       transform="translate(-0.935040,529.8524)" />
    <text
       style="font-size:12;font-weight:normal;stroke-width:1pt;font-family:Arial;text-anchor:middle;"
       x="139.936829"
       y="91.6889801"
       id="text1383"
       transform="translate(-0.935040,529.8524)">
      <tspan
         x="139.936829"
         y="91.6889801"
         sodipodi:role="line"
         id="tspan734">
block header</tspan>
    </text>
    <text
       style="font-size:20;font-weight:normal;stroke-width:1pt;font-family:Arial;text-anchor:middle;font-style:normal;writing-mode:lr;"
       x="143.750019"
       y="533.592529"
       id="text1386"
       transform="translate(-0.935059,117.3720)">
      <tspan
         x="143.750015"
         y="533.592529"
         sodipodi:role="line"
         id="tspan978">
last file metadata</tspan>
    </text>
  </g>
  <g
     id="g1008"
     transform="translate(-9.536743e-6,17.71657)"
     style="font-size:12;">
    <rect
       style="font-size:12;fill-rule:evenodd;stroke:#000000;stroke-width:0.176034pt;"
       id="rect1009"
       width="5.698824"
       height="5.433082"
       x="136.033459"
       y="432.283386"
       ry="2.71654058" />
    <rect
       style="font-size:12;fill-rule:evenodd;stroke:#000000;stroke-width:0.176034pt;"
       id="rect1010"
       width="5.698824"
       height="5.433082"
       x="136.033459"
       y="449.999954"
       ry="2.71654058" />
    <rect
       style="font-size:12;fill-rule:evenodd;stroke:#000000;stroke-width:0.176034pt;"
       id="rect1011"
       width="5.698824"
       height="5.433082"
       x="136.033459"
       y="467.716553"
       ry="2.71654058" />
  </g>
  <g
     id="g1041"
     transform="translate(0.000000,-106.2991)">
    <rect
       style="font-size:12;fill:#ffbfbf;fill-rule:evenodd;stroke:#000000;stroke-width:1pt;"
       id="rect1433"
       width="177.165344"
       height="35.4330444"
       x="442.913391"
       y="201.968506"
       transform="translate(0.000000,35.43291)" />
    <text
       style="font-size:20;font-weight:normal;stroke-width:1pt;font-family:Arial;text-anchor:middle;font-style:normal;writing-mode:lr;"
       x="533.429451"
       y="226.112152"
       id="text1434"
       transform="translate(0.000000,35.43291)">
      <tspan
         x="533.429443"
         y="226.112152"
         sodipodi:role="line"
         id="tspan706">
file 1 metadata</tspan>
    </text>
    <g
       id="g756"
       transform="translate(17.71660,-389.7638)">
      <rect
         style="font-size:12;fill:#c5eae4;fill-rule:evenodd;stroke:#000000;stroke-width:1pt;"
         id="rect740"
         width="177.165344"
         height="17.716599"
         x="425.196823"
         y="609.448776" />
      <text
         style="font-size:12;font-weight:normal;stroke-width:1pt;font-family:helvetica;"
         x="478.811310"
         y="623.038605"
         id="text744">
        <tspan
           id="tspan745">
block header</tspan>
      </text>
    </g>
  </g>
  <g
     id="g1063"
     transform="translate(0.000000,-106.2992)">
    <rect
       style="font-size:12;fill:#ffbfbf;fill-rule:evenodd;stroke:#000000;stroke-width:1pt;"
       id="rect1412"
       width="177.165344"
       height="70.8660889"
       x="442.913391"
       y="95.6692963"
       transform="translate(0.000000,549.2126)" />
    <rect
       style="font-size:12;fill:#c5eae4;fill-rule:evenodd;stroke:#000000;stroke-width:1pt;"
       id="rect1413"
       width="177.165344"
       height="17.716599"
       x="442.913391"
       y="77.952713"
       transform="translate(0.000000,549.2126)" />
    <text
       style="font-size:12;font-weight:normal;stroke-width:1pt;font-family:Arial;text-anchor:middle;"
       x="531.876343"
       y="90.5285950"
       id="text1414"
       transform="translate(0.000000,549.2126)">
      <tspan
         x="531.876343"
         y="90.5285950"
         sodipodi:role="line"
         id="tspan700">
block header</tspan>
    </text>
    <text
       style="font-size:20;font-weight:normal;stroke-width:1pt;font-family:Arial;text-anchor:middle;"
       x="533.750000"
       y="136.112122"
       id="text1419"
       transform="translate(0.000000,549.2126)">
      <tspan
         x="533.750000"
         y="136.112122"
         sodipodi:role="line"
         id="tspan1422">
block table</tspan>
    </text>
  </g>
  <g
     id="g1072"
     transform="translate(35.43308,-354.3306)">
    <rect
       style="font-size:12;fill:#c5eae4;fill-rule:evenodd;stroke:#000000;stroke-width:1pt;"
       id="rect1059"
       width="177.165344"
       height="17.716599"
       x="407.480309"
       y="538.582565" />
    <text
       style="font-size:12;font-weight:normal;stroke-width:1pt;font-family:Arial;text-anchor:middle;"
       x="496.443260"
       y="551.158447"
       id="text1060">
      <tspan
         x="496.443268"
         y="551.158447"
         sodipodi:role="line"
         id="tspan1061">
block header</tspan>
    </text>
  </g>
  <g
     id="g1077"
     transform="translate(0.000000,-88.58257)">
    <rect
       style="font-size:12;fill:#ffbfbf;fill-rule:evenodd;stroke:#000000;stroke-width:1pt;"
       id="rect1448"
       width="177.165344"
       height="35.433044"
       x="442.913391"
       y="361.417328"
       transform="translate(0.000000,-70.86626)" />
    <text
       style="font-size:20;font-weight:normal;stroke-width:1pt;font-family:Arial;text-anchor:middle;font-style:normal;writing-mode:lr;"
       x="533.429443"
       y="314.694702"
       id="text1449">
      <tspan
         x="533.429443"
         y="314.694702"
         sodipodi:role="line"
         id="tspan712">
file 2 metadata</tspan>
    </text>
  </g>
  <g
     id="g1082"
     transform="translate(0.000000,-70.86612)">
    <rect
       style="font-size:12;fill:#ffbfbf;fill-rule:evenodd;stroke:#000000;stroke-width:1pt;"
       id="rect1443"
       width="177.165344"
       height="35.4330444"
       x="442.913391"
       y="201.968506"
       transform="translate(-2.384186e-6,194.8818)" />
    <text
       style="font-size:20;font-weight:normal;stroke-width:1pt;font-family:Arial;text-anchor:middle;font-style:normal;writing-mode:lr;"
       x="533.429451"
       y="226.112152"
       id="text1444"
       transform="translate(-2.384186e-6,194.8818)">
      <tspan
         x="533.429443"
         y="226.112152"
         sodipodi:role="line"
         id="tspan718">
last file metadata</tspan>
    </text>
  </g>
  <g
     id="g1092"
     transform="translate(35.43308,-230.3148)">
    <rect
       style="font-size:12;fill:#c5eae4;fill-rule:evenodd;stroke:#000000;stroke-width:1pt;"
       id="rect1093"
       width="177.165344"
       height="17.716599"
       x="407.480309"
       y="538.582565" />
    <text
       style="font-size:12;font-weight:normal;stroke-width:1pt;font-family:Arial;text-anchor:middle;"
       x="496.443260"
       y="551.158447"
       id="text1094">
      <tspan
         x="496.443268"
         y="551.158447"
         sodipodi:role="line"
         id="tspan1095">
block header</tspan>
    </text>
  </g>
  <text
     style="fill:black;stroke:none;font-family:Arial;font-style:normal;font-weight:normal;font-size:24;text-anchor:start;writing-mode:lr;fill-opacity:1;stroke-opacity:1;stroke-width:1pt;stroke-linejoin:miter;stroke-linecap:butt;"
     x="468.243286"
     y="492.396149"
     id="text1097">
    <tspan
       x="468.243286"
       y="492.396149"
       sodipodi:role="line"
       id="tspan1100">
Block table</tspan>
  </text>
</svg>
